C:\Users\hp\Desktop\sample\com.poorva\src\test\java\com\poorva\TestCase2.java
C:\Users\hp\Desktop\sample\com.poorva\src\test\java\com\poorva\TestCase3.java
C:\Users\hp\Desktop\sample\com.poorva\src\test\java\com\poorva\TestCase1.java
